{
  "os": "LINUX",
  "description": "EMS client SKIP installation instruction set",
  "condition": "${SKIP_BAGUETTE_INSTALLATION:-false} || '${OS_ARCHITECTURE:-x}'.startsWith('arm') || ${CPU_PROCESSORS:-0} <= ${BAGUETTE_INSTALLATION_MIN_PROCESSORS:-0} || ${RAM_AVAILABLE_KB:-0} <= ${BAGUETTE_INSTALLATION_MIN_RAM:-0} || ${DISK_FREE_KB:-0} <= ${BAGUETTE_INSTALLATION_MIN_DISK_FREE:-0}",
  "instructions": [
    {
      "description": "DEBUG: Print node pre-registration VARIABLES",
      "taskType": "PRINT_VARS"
    },
   {
      "description": "Set __EMS_CLIENT_INSTALL__ variable",
      "taskType": "SET_VARS",
      "variables": {
        "__EMS_CLIENT_INSTALL__": "SKIPPED"
      }
    },
    {
      "description": "Log SKIP installation",
      "taskType": "LOG",
      "message": "EMS client installation SKIPPED at Node"
    }
  ]
}