

${AnsiColor.051} ███████╗███╗   ███╗███████╗     ██████╗ ██████╗ ███╗   ██╗████████╗██████╗  ██████╗ ██╗
${AnsiColor.051} ██╔════╝████╗ ████║██╔════╝    ██╔════╝██╔═══██╗████╗  ██║╚══██╔══╝██╔══██╗██╔═══██╗██║
${AnsiColor.051} █████╗  ██╔████╔██║███████╗    ██║     ██║   ██║██╔██╗ ██║   ██║   ██████╔╝██║   ██║██║
${AnsiColor.012} ██╔══╝  ██║╚██╔╝██║╚════██║    ██║     ██║   ██║██║╚██╗██║   ██║   ██╔══██╗██║   ██║██║
${AnsiColor.012} ███████╗██║ ╚═╝ ██║███████║    ╚██████╗╚██████╔╝██║ ╚████║   ██║   ██║  ██║╚██████╔╝███████╗
${AnsiColor.012} ╚══════╝╚═╝     ╚═╝╚══════╝     ╚═════╝ ╚═════╝ ╚═╝  ╚═══╝   ╚═╝   ╚═╝  ╚═╝ ╚═════╝ ╚══════╝

${AnsiColor.046} :: EMS Control :: ${AnsiColor.87}                       (@project.version@)
${AnsiColor.046} :: Spring Boot :: ${AnsiColor.87}                      ${spring-boot.formatted-version}
${AnsiColor.046} :: Java (TM)   :: ${AnsiColor.87}                       (${java.version})
${AnsiColor.046} :: Build Num.  :: ${AnsiColor.226}@buildNumber@
${AnsiColor.046} :: Build Date  :: ${AnsiColor.226}@timestamp@
${AnsiColor.046} :: SCM Branch  :: ${AnsiColor.226}@git.branch@
${AnsiColor.046} :: Image Tag   :: ${AnsiColor.226}@docker.image.name@:@docker.image.tag@
${AnsiColor.046} :: Description :: ${AnsiColor.226}@build.description@ ${AnsiColor.DEFAULT}${AnsiStyle.NORMAL}