   ______                     __   ___      __________  __ 
  / ____/___ _____ ___  ___  / /  |__ \    / ____/ __ \/ / 
 / /   / __ `/ __ `__ \/ _ \/ /   __/ /   / __/ / /_/ / /  
/ /___/ /_/ / / / / / /  __/ /   / __/   / /___/ ____/ /___
\____/\__,_/_/ /_/ /_/\___/_/   /____/  /_____/_/   /_____/
                                                           
                                                             